<?xml version="1.0" encoding="utf-8"?>
<!-- Generator: Adobe Illustrator 25.1.0, SVG Export Plug-In . SVG Version: 6.00 Build 0)  -->
<svg version="1.1" id="圖層_1" xmlns="http://www.w3.org/2000/svg" xmlns:xlink="http://www.w3.org/1999/xlink" x="0px" y="0px"
	 viewBox="0 0 73 73" style="enable-background:new 0 0 73 73;" xml:space="preserve">
<style type="text/css">
	.st0{opacity:0.9;fill:#FFFFFF;}
	.st1{fill:#3BA1ED;}
</style>
<path class="st0" d="M35.4,1.7L16.5,35.4c-0.3,0.5-0.3,1.1,0,1.5l18.9,33.7c0.6,1.1,2.2,1.1,2.8,0L57.1,37c0.3-0.5,0.3-1.1,0-1.5
	L38.2,1.7C37.6,0.7,36,0.7,35.4,1.7z"/>
<path class="st1" d="M36.8-0.3L16.3,36.2l20.5,36.5l20.5-36.5L36.8-0.3z M36.8,5.4l16.6,29.8l-15.6,7l-17.5-7L36.8,5.4z"/>
</svg>
